%YAML 1.1
%TAG !u! tag:unity3d.com,2011:
--- !u!114 &11400000
MonoBehaviour:
  m_ObjectHideFlags: 0
  m_CorrespondingSourceObject: {fileID: 0}
  m_PrefabInstance: {fileID: 0}
  m_PrefabAsset: {fileID: 0}
  m_GameObject: {fileID: 0}
  m_Enabled: 1
  m_EditorHideFlags: 0
  m_Script: {fileID: 11500000, guid: 6e87c923febe6e348825a37e604e19f9, type: 3}
  m_Name: RedClock
  m_EditorClassIdentifier: 
  clock: {fileID: 3821989013656626686, guid: a42e9c993f44994418c1996e5b7c7559, type: 3}
