%YAML 1.1
%TAG !u! tag:unity3d.com,2011:
--- !u!162 &1
EditorUserSettings:
  m_ObjectHideFlags: 0
  serializedVersion: 4
  m_ConfigSettings:
    RecentlyUsedSceneGuid-0:
      value: 5a08575f5207595a0f5d59741173094444164f7d7d2a23317c7a4465bbe1646d
      flags: 0
    RecentlyUsedSceneGuid-1:
      value: 510804035607595a095f552749730c4417164f7f292b7f637e701f36b4b5353d
      flags: 0
    RecentlyUsedSceneGuid-2:
      value: 540256055c040d0c550a0a2416220944424f1c2f75707e637a2b456bb5e33561
      flags: 0
    RecentlyUsedSceneGuid-3:
      value: 5606515151565f095b5d5b7347720b4441164829287877637a284e62bbe3643e
      flags: 0
    RecentlyUsedSceneGuid-4:
      value: 0503045e01005d080e5e5b2141220f44454e19787e2c74347e714535e6b1326b
      flags: 0
    RecentlyUsedSceneGuid-5:
      value: 0700575554055059090c597611270a44154f19782e7a7e63757c4f6be7b66068
      flags: 0
    RecentlyUsedScenePath-0:
      value: 22424703114646680e0b0227036c6c111b07142f1f2b233e2867083debf42d
      flags: 0
    UnityEditor.ShaderGraph.Blackboard:
      value: 18135939215a0a5004000b0e15254b524c030a3f2964643d120d1230e9e93a3fd6e826abbd2e2d293c4ead313b08042de6030a0afa240c0d020be94c4ba75e435d8715fa32c70d15d11612dacc11fee5d3c5d1fe9ab1bf968e93e2ffcbc3e7e2f0b3ffe0e8b0be9af8ffaeffff8e85dd8390e3949c8899daa7
      flags: 0
    UnityEditor.ShaderGraph.FloatingWindowsLayout2:
      value: 181344140043005e1a220d3b1f364b524c0c5a27130c293326201334cee5322ca0bd30e8eb293a707b0fd0180b3d0a36fc0d3d04e649500d1002ee0b5dbd1d2c27c00ad113cb1e10e41f1addc80993b9878f9aba94a9eae7f6d0b2fbeeffe0ecf4fd8afdacbbf9d4e8f5afe8f68c978883c788f7c5dccc85e0c993cbfc8980838c98d59a9b9e9a818bddf5c3f28dbab9
      flags: 0
    UnityEditor.ShaderGraph.InspectorWindow:
      value: 18135939215a0a5004000b0e15254b524c1119263f2d6a722016393ce1eb3d36e5d339f9a5602b2e2c07a37e0901373ae01e0008f707250d171df81a53a5485d41895ac825e0100ec20313c0d91cddccd3d0c7efcca9bd80908fecb0f9cfddf1eff4e7a1b1eae482f0fcaee1e1928b86d888ed969b938797a7cf
      flags: 0
    UnityEditor.ShaderGraph.ToggleSettings:
      value: 18135d1527590858060c032302276919051e1a26296a7c243f3c187fa0e92708f0e220e0e22d09352a0bed30017c5b2be01f0c47b40219221f1ded0b12eb1f0127cc0bcc18c41a5e911f1dc2de189da1d6d9d8e5cadbf5d7c8d6a4f7e6b2b4baa9dfaaf5aff6bedd
      flags: 0
    vcSharedLogLevel:
      value: 0d5e400f0650
      flags: 0
  m_VCAutomaticAdd: 1
  m_VCDebugCom: 0
  m_VCDebugCmd: 0
  m_VCDebugOut: 0
  m_SemanticMergeMode: 2
  m_DesiredImportWorkerCount: 2
  m_StandbyImportWorkerCount: 2
  m_IdleImportWorkerShutdownDelay: 60000
  m_VCShowFailedCheckout: 1
  m_VCOverwriteFailedCheckoutAssets: 1
  m_VCProjectOverlayIcons: 1
  m_VCHierarchyOverlayIcons: 1
  m_VCOtherOverlayIcons: 1
  m_VCAllowAsyncUpdate: 1
  m_ArtifactGarbageCollection: 1
